<?xml version="1.0" encoding="UTF-8" standalone="no"?>
<svg xmlns:rdf="http://www.w3.org/1999/02/22-rdf-syntax-ns#" xmlns="http://www.w3.org/2000/svg" version="1.1" xmlns:cc="http://creativecommons.org/ns#" xmlns:xlink="http://www.w3.org/1999/xlink" viewBox="0 0 24 24.000003" xmlns:dc="http://purl.org/dc/elements/1.1/">
<metadata>
<rdf:RDF>
<cc:Work rdf:about="">
<dc:format>image/svg+xml</dc:format>
<dc:type rdf:resource="http://purl.org/dc/dcmitype/StillImage"/>
</cc:Work>
</rdf:RDF>
</metadata>
<defs>
<linearGradient id="k" y2="209.2774" xlink:href="#b" gradientUnits="userSpaceOnUse" x2="14.01084" gradientTransform="matrix(1.346661 0 0 .715969 -52.65426 45.42126)" y1="203.3658" x1="10.04167"/>
<linearGradient id="b">
<stop stop-color="#5a5a5a" offset="0"/>
<stop offset="1"/>
</linearGradient>
<linearGradient id="i" y2="219.6793" xlink:href="#a" gradientUnits="userSpaceOnUse" x2="17.94699" gradientTransform="matrix(1.018492 0 0 .59969 -52.00822 64.92824)" y1="213.872" x1="15.74156"/>
<linearGradient id="e" y2="209.2774" xlink:href="#b" gradientUnits="userSpaceOnUse" x2="14.01084" gradientTransform="matrix(1.373757 0 0 .715969 -52.92573 45.42126)" y1="203.3658" x1="10.04167"/>
<linearGradient id="f" y2="217.8234" xlink:href="#a" gradientUnits="userSpaceOnUse" x2="17.31054" gradientTransform="matrix(2.508587,0,0,1.001693,-139.9689,-26.31358)" y1="213.2164" x1="16.04734"/>
<linearGradient id="g" y2="215.2099" xlink:href="#a" gradientUnits="userSpaceOnUse" x2="17.75236" gradientTransform="matrix(3.333119,0,0,1.671823,-155.1792,-171.7462)" y1="218.9795" x1="18.84686"/>
<linearGradient id="h" y2="209.2774" xlink:href="#b" gradientUnits="userSpaceOnUse" x2="14.01084" gradientTransform="matrix(2.750568,0,0,1.002646,-133.3919,-18.49926)" y1="203.3658" x1="10.04167"/>
<linearGradient id="d" y2="214.6554" xlink:href="#a" gradientUnits="userSpaceOnUse" x2="18.82314" gradientTransform="matrix(1.537676,0,0,1.000883,-61.45158,-22.13894)" y1="219.9305" x1="20.21689"/>
<linearGradient id="c" y2="219.6793" xlink:href="#a" gradientUnits="userSpaceOnUse" x2="17.94699" gradientTransform="matrix(1.157292 0 0 .59969 -54.4347 64.92824)" y1="213.872" x1="15.74156"/>
<linearGradient id="j" y2="214.6554" xlink:href="#a" gradientUnits="userSpaceOnUse" x2="18.82314" gradientTransform="matrix(1.353254,0,0,1.000883,-58.18353,-22.13894)" y1="219.9305" x1="20.21689"/>
<linearGradient id="a">
<stop stop-color="#fff" offset="0"/>
<stop stop-color="#98b6d3" offset="1"/>
</linearGradient>
</defs>
<g transform="matrix(1 0 0 .998006 45 -174.65105)">
<g stroke-linejoin="round" stroke-width=".9579424" stroke-miterlimit="0" transform="matrix(1.091916,0,0,1,2.537389,-5.0367132)">
<rect style="color:#000000" height="5.011148" width="10.98825" stroke="url(#e)" y="192.5597" x="-38.48989" fill="none"/>
<rect style="color:#000000" fill-rule="evenodd" height="3.006435" width="9.227168" stroke="url(#c)" stroke-linecap="round" y="193.5608" x="-37.60492" fill="url(#d)"/>
</g>
<g stroke-linejoin="round" stroke-miterlimit="0" transform="translate(59.995968 -11.05181)">
<rect style="color:#000000" height="7.017632" width="22.00094" stroke="url(#h)" y="187.554" x="-104.4881" stroke-width="1.0009984" fill="none"/>
<rect style="color:#000000" fill-rule="evenodd" height="5.021792" width="20.00112" stroke="url(#f)" stroke-linecap="round" y="188.5476" x="-103.4882" stroke-width="1.0009996" fill="url(#g)"/>
</g>
<rect style="color:#000000" transform="matrix(1,0,0,1.001998,-1125,9.670333)" height="24" width="24" y="165" x="1080" fill="none"/>
<rect style="color:#000000" height="16" width="16" y="175" x="-45" fill="none"/>
<rect style="color:#000000" height="16" width="16" y="175" x="-44.96902" fill="none"/>
<path fill-rule="evenodd" d="m-34 196.511-3 2.505v-2.004l-6 0.0319v-1.0019l6-0.032v-2.004l3 2.505z"/>
<g stroke-linejoin="round" stroke-width="1.1608068" stroke-miterlimit="0" transform="matrix(.743616 0 0 1 -8.870407 -12.0507)">
<rect style="color:#000000" height="5.011148" width="10.77151" stroke="url(#k)" y="192.5597" x="-38.50316" fill="none"/>
<rect style="color:#000000" fill-rule="evenodd" height="3.006435" width="8.120504" stroke="url(#i)" stroke-linecap="round" y="193.5608" x="-37.19693" fill="url(#j)"/>
</g>
<path d="m-27.45876 175.5271v23.0451" transform="translate(-6.033343 -.0260693)" stroke="#c80000" stroke-linecap="square" stroke-width="1.0009989" fill="none"/>
<path d="m-34 196.511-3 2.505v-2.004l-6 0.0319v-1.0019l6-0.032v-2.004l3 2.505z" fill-rule="evenodd" transform="matrix(-1 0 0 1 -66.9921 .03112)"/>
</g>
</svg>
