<?xml version="1.0" encoding="UTF-8" standalone="no"?>
<svg xmlns:rdf="http://www.w3.org/1999/02/22-rdf-syntax-ns#" xmlns="http://www.w3.org/2000/svg" version="1.1" xmlns:cc="http://creativecommons.org/ns#" viewBox="0 0 24 24.005181" xmlns:dc="http://purl.org/dc/elements/1.1/">
<metadata>
<rdf:RDF>
<cc:Work rdf:about="">
<dc:format>image/svg+xml</dc:format>
<dc:type rdf:resource="http://purl.org/dc/dcmitype/StillImage"/>
</cc:Work>
</rdf:RDF>
</metadata>
<g transform="translate(-1174.997,-139.9972)">
<path d="m1175.498 152.4972h22.999" stroke="#c80000" stroke-linecap="square" stroke-width="1.0000004" fill="none"/>
<rect style="color:#000000" transform="rotate(-90)" height="16" width="16" y="1180.497" x="-163.9971" fill="none"/>
<path stroke-linejoin="round" d="m1175.497 163.4972c3.5-3 1.599-18.9753 7.5-17.5 4 1 1 17 8.5 17.5 5.488 0.3658 2.5-17 6.5-23" stroke="#969696" stroke-linecap="round" stroke-miterlimit="0" stroke-width="1.0000004" fill="none"/>
<rect stroke-linejoin="round" style="color:#000000" fill-rule="evenodd" transform="translate(-7.9782 9.009087)" height="4.007167" width="4.066208" stroke="#00f" stroke-linecap="round" stroke-miterlimit="0" y="141.5" x="1184.5" stroke-width=".9999997" fill="#8ab3de"/>
<rect stroke-linejoin="round" style="color:#000000" fill-rule="evenodd" transform="translate(-.9782 9.001915)" height="4.007167" width="4.066208" stroke="#00f" stroke-linecap="round" stroke-miterlimit="0" y="141.5" x="1184.5" stroke-width=".9999997" fill="#8ab3de"/>
<rect stroke-linejoin="round" style="color:#000000" fill-rule="evenodd" transform="translate(8.955592 9.001915)" height="4.007167" width="4.066208" stroke="#00f" stroke-linecap="round" stroke-miterlimit="0" y="141.5" x="1184.5" stroke-width=".9999997" fill="#8ab3de"/>
</g>
</svg>
