<?xml version="1.0" encoding="UTF-8" standalone="no"?>
<svg xmlns:rdf="http://www.w3.org/1999/02/22-rdf-syntax-ns#" xmlns="http://www.w3.org/2000/svg" version="1.1" xmlns:cc="http://creativecommons.org/ns#" viewBox="0 0 12.01931 12.01931" xmlns:dc="http://purl.org/dc/elements/1.1/">
<metadata>
<rdf:RDF>
<cc:Work rdf:about="">
<dc:format>image/svg+xml</dc:format>
<dc:type rdf:resource="http://purl.org/dc/dcmitype/StillImage"/>
</cc:Work>
</rdf:RDF>
</metadata>
<g transform="translate(-591.5 -361)">
<rect height="12.01931" width="12.01931" y="361" x="591.5" fill="none"/>
<g transform="matrix(.5555556 0 0 .5555556 57.49996 271.5555)">
<path d="m972 171 1-1h7l1 1v7l-1 1h-7l-1-1v-7z" fill-rule="evenodd" stroke="#a00" stroke-width="1.7999997px" fill="#a00"/>
<path d="m974 171.85 5 5" stroke="#fff" stroke-width="2.1599998" fill="none"/>
<path stroke-linejoin="round" d="m979 171.85-5 5" stroke="#fff" stroke-width="2.1599998" fill="none"/>
</g>
<rect stroke-linejoin="round" stroke-opacity=".9411765" fill-rule="evenodd" height="3" width="3" stroke="#f00" stroke-linecap="round" stroke-miterlimit="0" y="363" x="593" stroke-width=".9999995" fill="#f77"/>
</g>
</svg>
