<?xml version="1.0" encoding="UTF-8" standalone="no"?>
<svg xmlns:rdf="http://www.w3.org/1999/02/22-rdf-syntax-ns#" xmlns="http://www.w3.org/2000/svg" version="1.1" xmlns:cc="http://creativecommons.org/ns#" xmlns:xlink="http://www.w3.org/1999/xlink" viewBox="0 0 16.000858 16.001566" xmlns:dc="http://purl.org/dc/elements/1.1/">
<metadata>
<rdf:RDF>
<cc:Work rdf:about="">
<dc:format>image/svg+xml</dc:format>
<dc:type rdf:resource="http://purl.org/dc/dcmitype/StillImage"/>
</cc:Work>
</rdf:RDF>
</metadata>
<defs>
<linearGradient id="j" y2="211.8799" xlink:href="#b" gradientUnits="userSpaceOnUse" x2="15.65274" gradientTransform="matrix(1.124786,0,0,1.142472,-6.359476,-29.34859)" y1="205.4478" x1="11.87961"/>
<linearGradient id="e" y2="218.2771" xlink:href="#a" gradientUnits="userSpaceOnUse" x2="17.98802" gradientTransform="matrix(1.252006,0,0,1.989026,-8.72932,-217.1732)" y1="213.6587" x1="16.81461"/>
<linearGradient id="h" y2="218.1995" xlink:href="#a" gradientUnits="userSpaceOnUse" x2="17.85282" gradientTransform="matrix(.877306 0 0 1.195484 -6.297976 -49.98854)" y1="212.7111" x1="14.85535"/>
<linearGradient id="b">
<stop stop-color="#5a5a5a" offset="0"/>
<stop offset="1"/>
</linearGradient>
<linearGradient id="k" y2="46.339" xlink:href="#a" gradientUnits="userSpaceOnUse" x2="414.2602" gradientTransform="matrix(1.001797 0 0 .906445 -290.1978 295.2598)" y1="46.33899" x1="404.6787"/>
<linearGradient id="c" y2="178.6575" xlink:href="#b" gradientUnits="userSpaceOnUse" x2="-33.69472" gradientTransform="matrix(0,1,-1.02198,0,-158.6115,251.2932)" y1="187.863" x1="-37.33073"/>
<linearGradient id="d" y2="264.6892" gradientUnits="userSpaceOnUse" x2="366.0981" gradientTransform="matrix(1.02198,0,0,1,-306.8063,31.29639)" y1="261.2473" x1="361.7094">
<stop stop-color="#f3ff49" offset="0"/>
<stop stop-color="#ffa01e" offset="1"/>
</linearGradient>
<linearGradient id="i" y2="214.8796" xlink:href="#a" gradientUnits="userSpaceOnUse" x2="17.50228" gradientTransform="matrix(1.165662,0,0,1.995259,-11.61728,-223.557)" y1="218.1055" x1="19.63879"/>
<linearGradient id="l" y2="350.1636" gradientUnits="userSpaceOnUse" x2="130.3522" y1="343.258" x1="121.1177">
<stop stop-color="#fffdf8" offset="0"/>
<stop stop-color="#cdccc7" offset="1"/>
</linearGradient>
<linearGradient id="a">
<stop stop-color="#fff" offset="0"/>
<stop stop-color="#98b6d3" offset="1"/>
</linearGradient>
<linearGradient id="g" y2="210.8717" xlink:href="#b" gradientUnits="userSpaceOnUse" x2="16.80415" gradientTransform="matrix(1.49944,0,0,1.713117,-7.27874,-143.5936)" y1="205.4478" x1="11.87961"/>
<linearGradient id="f" y2="212.9507" xlink:href="#a" gradientUnits="userSpaceOnUse" x2="10.29425" gradientTransform="matrix(1.66352,0,0,3.319677,-16.32051,-505.9534)" y1="219.117" x1="21.80956"/>
</defs>
<g transform="translate(-55.499196 -305.50075)">
<g stroke-linejoin="round" stroke="#000" stroke-linecap="round" transform="matrix(1 0 0 .996869 -59.55772 -28.70668)" fill-rule="evenodd">
<rect style="color:#000000" height="11.99987" width="14.99917" y="338.8083" x="115.5577" stroke-width="1.0015693" fill="url(#l)"/>
<rect style="color:#000000" height="3.011261" width="14.99819" y="335.7579" x="115.5588" stroke-width="1.0015692" fill="url(#k)"/>
</g>
<g transform="matrix(.600005 0 0 .599717 25.61153 139.5917)">
<g stroke-linejoin="round" stroke-miterlimit="0" transform="translate(50.5399,79.54113)">
<rect style="color:#000000" height="7.996297" width="8.996808" stroke="url(#j)" y="205.4404" x="5.4601" stroke-width=".9999996" fill="none"/>
<rect style="color:#000000" fill-rule="evenodd" height="5.993324" width="6.994814" stroke="url(#h)" stroke-linecap="round" y="206.4404" x="6.46013" stroke-width="1.0000006" fill="url(#i)"/>
<rect style="color:#000000" height="11.99031" width="11.99355" stroke="url(#g)" y="208.4686" x="8.477812" stroke-width=".9999994" fill="none"/>
<rect style="color:#000000" fill-rule="evenodd" height="9.971587" width="9.982319" stroke="url(#e)" stroke-linecap="round" y="209.4688" x="9.477811" stroke-width="1.0000004" fill="url(#f)"/>
</g>
<rect stroke-linejoin="round" style="color:#000000" fill-rule="evenodd" height="4.001433" width="5.979028" stroke="url(#c)" stroke-linecap="round" stroke-miterlimit="0" y="293.0437" x="62.0523" stroke-width="1.0000005" fill="url(#d)"/>
<path d="m63.0113 291v1" stroke="#000" stroke-linecap="square" stroke-width="1px" fill="none"/>
<path d="m62.5 131.5v1" transform="translate(4.5113 159.49999)" stroke="#000" stroke-linecap="square" stroke-width="1px" fill="none"/>
<path d="m64.0113 290h2" stroke="#000" stroke-linecap="square" stroke-width="1px" fill="none"/>
<path d="m63 295.9816v-2h4" stroke="#fff" stroke-width="1px" fill="none"/>
</g>
</g>
</svg>
