<?xml version="1.0" encoding="UTF-8" standalone="no"?>
<svg xmlns:rdf="http://www.w3.org/1999/02/22-rdf-syntax-ns#" xmlns="http://www.w3.org/2000/svg" version="1.1" xmlns:cc="http://creativecommons.org/ns#" xmlns:xlink="http://www.w3.org/1999/xlink" viewBox="0 0 18.268586 17.84485" xmlns:dc="http://purl.org/dc/elements/1.1/">
<metadata>
<rdf:RDF>
<cc:Work rdf:about="">
<dc:format>image/svg+xml</dc:format>
<dc:type rdf:resource="http://purl.org/dc/dcmitype/StillImage"/>
</cc:Work>
</rdf:RDF>
</metadata>
<defs>
<linearGradient id="d" y2="190.2852" xlink:href="#a" gradientUnits="userSpaceOnUse" x2="99.93163" y1="199.9722" x1="109.2829"/>
<linearGradient id="b" y2="195.8891" gradientUnits="userSpaceOnUse" x2="101.695" y1="191.0442" x1="98.53114">
<stop stop-color="#5a5a5a" offset="0"/>
<stop offset="1"/>
</linearGradient>
<linearGradient id="a">
<stop stop-color="#ffeb74" offset="0"/>
<stop stop-color="#fff" offset="1"/>
</linearGradient>
<linearGradient id="c" y2="191.2326" xlink:href="#a" gradientUnits="userSpaceOnUse" x2="98.80204" y1="197.6577" x1="102.7218"/>
</defs>
<g stroke-width=".6782926" stroke-linecap="round" transform="translate(-455.80047 -179.15558)" fill-rule="evenodd">
<path stroke-linejoin="round" style="color:#000000" d="m109.1123 194.2458-3.4876 2.2071-0.019 4.1272-3.1768-2.6349-3.93097 1.2577 1.52427-3.8355-2.41085-3.35 4.11875 0.2644 2.441-3.328 1.0213 3.9989z" transform="matrix(1.492696 -.0409829 .0399483 1.455015 302.9314 -91.01218)" stroke="url(#b)" stroke-miterlimit="0" fill="#fffbc5"/>
<path style="color:#000000" d="m107.5277 194.4445-2.569 1.6153-0.031 3.0747-2.3302-1.9442-2.93379 0.9204 1.12889-2.8168-1.78192-2.5058 3.02782 0.2032 1.8325-2.4691 0.7424 2.9425z" transform="matrix(1.492696 -.0409829 .0399483 1.455015 302.9314 -91.01218)" stroke="url(#d)" stroke-miterlimit="80" fill="url(#c)"/>
</g>
</svg>
