<?xml version="1.0" encoding="UTF-8" standalone="no"?>
<svg xmlns:rdf="http://www.w3.org/1999/02/22-rdf-syntax-ns#" xmlns="http://www.w3.org/2000/svg" version="1.1" xmlns:cc="http://creativecommons.org/ns#" viewBox="0 0 24 24" xmlns:dc="http://purl.org/dc/elements/1.1/">
<metadata>
<rdf:RDF>
<cc:Work rdf:about="">
<dc:format>image/svg+xml</dc:format>
<dc:type rdf:resource="http://purl.org/dc/dcmitype/StillImage"/>
</cc:Work>
</rdf:RDF>
</metadata>
<g transform="translate(-85,-150)" fill="none">
<path stroke-linejoin="round" d="m96.15762 162.8596c0.9734-0.2466 1.42103 1.1976 1.25344 2.0538-0.35048 1.7905-2.20576 2.4131-3.56363 1.8242-2.11688-0.9182-2.80091-3.9049-1.91734-6.147 1.2163-3.0864 4.58912-4.0434 7.12105-2.5881 3.25106 1.8687 4.23186 6.6593 2.58126 10.2402-2.02684 4.3972-6.98766 5.6979-10.67849 3.352-4.39336-2.7925-5.67379-9.4221-3.24514-14.3335 2.82541-5.7137 9.39039-7.3599 14.23593-4.1158 5.5388 3.7082 7.1199 12.1879 3.909 18.4267-0.0105 0.0204-0.0211 0.0409-0.0317 0.0612" stroke="#000" stroke-linecap="round" stroke-width="1.0000002"/>
<rect style="color:#000000" height="24" width="24" y="150" x="85"/>
</g>
</svg>
