<?xml version="1.0" encoding="UTF-8" standalone="no"?>
<svg xmlns:rdf="http://www.w3.org/1999/02/22-rdf-syntax-ns#" xmlns="http://www.w3.org/2000/svg" version="1.1" xmlns:cc="http://creativecommons.org/ns#" xmlns:xlink="http://www.w3.org/1999/xlink" viewBox="0 0 11.000421 11.01619" xmlns:dc="http://purl.org/dc/elements/1.1/">
<metadata>
<rdf:RDF>
<cc:Work rdf:about="">
<dc:format>image/svg+xml</dc:format>
<dc:type rdf:resource="http://purl.org/dc/dcmitype/StillImage"/>
</cc:Work>
</rdf:RDF>
</metadata>
<defs>
<linearGradient id="a" y2="308.5" gradientUnits="userSpaceOnUse" x2="536.5" gradientTransform="matrix(1.062197 0 0 .9973142 -1261.924 1.593331)" y1="308.5" x1="522.991">
<stop offset="0"/>
<stop stop-color="#7f7f7f" offset=".35076979"/>
<stop stop-color="#bfbfbf" offset=".59668732"/>
<stop stop-color="#dfdfdf" offset=".78382427"/>
<stop stop-color="#fff" offset="1"/>
</linearGradient>
</defs>
<g transform="matrix(.941445 0 0 1.002693 -651.0318 -304.58143)">
<rect transform="scale(-1,1)" height="10.97046" width="11.68417" y="303.7795" x="-703.2083" fill="url(#a)"/>
<rect height="10.9571" width="11.684" y="303.7634" x="691.524" fill="none"/>
<path fill-rule="evenodd" d="m691.5241 314.2513 0.006 0.4987 11.6782-0.0161 0.0003-3.9732c-2.8312 1.7762-6.9043 3.4906-11.6842 3.4906z"/>
</g>
</svg>
