<?xml version="1.0" encoding="UTF-8" standalone="no"?>
<svg xmlns:rdf="http://www.w3.org/1999/02/22-rdf-syntax-ns#" xmlns="http://www.w3.org/2000/svg" version="1.1" xmlns:cc="http://creativecommons.org/ns#" xmlns:xlink="http://www.w3.org/1999/xlink" viewBox="0 0 16.25406 15.934411" xmlns:dc="http://purl.org/dc/elements/1.1/">
<metadata>
<rdf:RDF>
<cc:Work rdf:about="">
<dc:format>image/svg+xml</dc:format>
<dc:type rdf:resource="http://purl.org/dc/dcmitype/StillImage"/>
</cc:Work>
</rdf:RDF>
</metadata>
<defs>
<linearGradient id="c" y2="138.5" xlink:href="#a" gradientUnits="userSpaceOnUse" x2="36.18673" y1="132.9464" x1="31.37247"/>
<linearGradient id="a">
<stop stop-color="#5a5a5a" offset="0"/>
<stop offset="1"/>
</linearGradient>
<linearGradient id="b" y2="137.4738" xlink:href="#a" gradientUnits="userSpaceOnUse" x2="42.18301" gradientTransform="translate(-1.5,7.5244)" y1="137.5165" x1="34.5194"/>
</defs>
<g transform="translate(-908.99999,-32.052448)">
<path d="m912.5 44.98691h12" stroke="#008000" stroke-linecap="square" stroke-width=".9413574px" fill="none"/>
<g transform="matrix(.684222 0 0 .684222 894.3189 -56.21219)">
<path fill="url(#c)" stroke="#000" d="m33 129.5h5l6.5 18h-4l-1-2.5h-8l-1 2.5h-4l6.5-18zm5.5 12-3-8.5-3 8.5h6z"/>
<path d="m33.5 130.5-5.5 15.5" fill-opacity=".75" fill-rule="evenodd" stroke="#646464" stroke-linecap="round" stroke-width="1.0000002px" fill="#fff"/>
<path d="m38 142.5244h-5.5" fill-opacity=".75" fill-rule="evenodd" stroke="url(#b)" stroke-linecap="round" stroke-width="1.0000002px" fill="#fff"/>
</g>
<rect stroke-linejoin="round" style="color:#000000" fill-rule="evenodd" fill-opacity=".3921569" transform="rotate(-45)" height="3.621212" width="3.584063" stroke="#008000" stroke-linecap="round" stroke-miterlimit="0" y="674.8813" x="611.2788" stroke-width=".9051017" fill="#6464ff"/>
</g>
</svg>
