<?xml version="1.0" encoding="UTF-8" standalone="no"?>
<svg xmlns:rdf="http://www.w3.org/1999/02/22-rdf-syntax-ns#" xmlns="http://www.w3.org/2000/svg" version="1.1" xmlns:cc="http://creativecommons.org/ns#" xmlns:xlink="http://www.w3.org/1999/xlink" viewBox="0 0 16 16" xmlns:dc="http://purl.org/dc/elements/1.1/">
<metadata>
<rdf:RDF>
<cc:Work rdf:about="">
<dc:format>image/svg+xml</dc:format>
<dc:type rdf:resource="http://purl.org/dc/dcmitype/StillImage"/>
</cc:Work>
</rdf:RDF>
</metadata>
<defs>
<linearGradient id="a" y2="239.4902" gradientUnits="userSpaceOnUse" x2="62.5" gradientTransform="matrix(1.743698,0,0,1.75,717.0189,-377.6785)" y1="235.1341" x1="59">
<stop stop-color="#5a5a5a" offset="0"/>
<stop offset="1"/>
</linearGradient>
<linearGradient id="b" y2="240.354" gradientUnits="userSpaceOnUse" x2="64.5183" gradientTransform="matrix(1.743698,0,0,1.75,717.0189,-377.6785)" y1="236.4112" x1="61.44776">
<stop stop-color="#fff" offset="0"/>
<stop stop-color="#aaa" offset="1"/>
</linearGradient>
</defs>
<g transform="translate(-818,-30.001141)">
<rect style="color:#000000" height="16" width="16" y="30.00114" x="818" stroke-width=".1" fill="none"/>
<path style="color:#000000" d="m820.7689 31.00114h10.4622v14h-10.4622v-14z" fill-rule="evenodd" stroke="url(#a)" stroke-width="1.0000002" fill="url(#b)"/>
</g>
</svg>
