<?xml version="1.0" encoding="UTF-8" standalone="no"?>
<svg xmlns:rdf="http://www.w3.org/1999/02/22-rdf-syntax-ns#" xmlns="http://www.w3.org/2000/svg" version="1.1" xmlns:cc="http://creativecommons.org/ns#" viewBox="0 0 28 28" xmlns:dc="http://purl.org/dc/elements/1.1/">
<metadata>
<rdf:RDF>
<cc:Work rdf:about="">
<dc:format>image/svg+xml</dc:format>
<dc:type rdf:resource="http://purl.org/dc/dcmitype/StillImage"/>
</cc:Work>
</rdf:RDF>
</metadata>
<g transform="translate(-1353.87,-51.96389)">
<g transform="matrix(.922438 0 0 .922438 106.4646 4.828925)">
<rect style="color:#000000" fill-rule="evenodd" height="29.19199" width="29.18541" stroke="#000" y="51.67942" x="1352.876" stroke-width=".7402338px" fill="#fff"/>
<path d="m1357.349 63.74015-1.275 3.44056h2.555l-1.28-3.44056m-0.53-0.92149h1.065l2.647 6.91352h-0.976l-0.634-1.77353h-3.13l-0.633 1.77353h-0.991l2.652-6.91352m7.304 0.92149-1.275 3.44056h2.554l-1.279-3.44056m-0.53-0.92149h1.065l2.647 6.91352h-0.977l-0.633-1.77353h-3.131l-0.632 1.77353h-0.992l2.653-6.91352"/>
<path d="m1370.815 63.74015-1.275 3.44056h2.555l-1.28-3.44056m-0.531-0.92149h1.066l2.647 6.91352h-0.977l-0.632-1.77353h-3.131l-0.633 1.77353h-0.991l2.651-6.91352m7.305 0.92149-1.275 3.44056h2.554l-1.279-3.44056m-0.53-0.92149h1.065l2.647 6.91352h-0.977l-0.633-1.77353h-3.131l-0.633 1.77353h-0.99l2.652-6.91352"/>
</g>
<rect height="28" width="28" y="51.96389" x="1353.87" fill="none"/>
</g>
</svg>
