<?xml version="1.0" encoding="UTF-8" standalone="no"?>
<svg xmlns:rdf="http://www.w3.org/1999/02/22-rdf-syntax-ns#" xmlns="http://www.w3.org/2000/svg" version="1.1" xmlns:cc="http://creativecommons.org/ns#" viewBox="0 0 24 24" xmlns:dc="http://purl.org/dc/elements/1.1/">
<metadata>
<rdf:RDF>
<cc:Work rdf:about="">
<dc:format>image/svg+xml</dc:format>
<dc:type rdf:resource="http://purl.org/dc/dcmitype/StillImage"/>
</cc:Work>
</rdf:RDF>
</metadata>
<g transform="translate(110,-135)">
<rect style="color:#000000" height="24" width="24" y="135" x="-110" fill="none"/>
<path stroke-linejoin="round" d="m-104.4426 154.8912l-0.0575-18.2662 12.04014 12.8752-5.20198-0.1182 3.4254 5.6771-4.47307 2.1183-2.00879-6.4587s-3.7242 4.1725-3.7242 4.1725z" fill-rule="evenodd" stroke="#fff"/>
</g>
</svg>
