<?xml version="1.0" encoding="UTF-8" standalone="no"?>
<svg xmlns:rdf="http://www.w3.org/1999/02/22-rdf-syntax-ns#" xmlns="http://www.w3.org/2000/svg" version="1.1" xmlns:cc="http://creativecommons.org/ns#" xmlns:xlink="http://www.w3.org/1999/xlink" viewBox="0 0 16.000493 16.025033" xmlns:dc="http://purl.org/dc/elements/1.1/">
<metadata>
<rdf:RDF>
<cc:Work rdf:about="">
<dc:format>image/svg+xml</dc:format>
<dc:type rdf:resource="http://purl.org/dc/dcmitype/StillImage"/>
</cc:Work>
</rdf:RDF>
</metadata>
<defs>
<linearGradient id="b" y2="239.4902" gradientUnits="userSpaceOnUse" x2="62.5" y1="235.1341" x1="59">
<stop stop-color="#5a5a5a" offset="0"/>
<stop offset="1"/>
</linearGradient>
<radialGradient id="a" cx="171.7755" gradientUnits="userSpaceOnUse" cy="153.063" r="7.469679" gradientTransform="matrix(1.122233,1.252981,-2.05495,1.830229,297.3402,-339.2527)">
<stop stop-color="#fff" offset="0"/>
<stop stop-color="#98b6d3" offset="1"/>
</radialGradient>
<linearGradient id="c" y2="240.354" gradientUnits="userSpaceOnUse" x2="64.5183" y1="236.4112" x1="61.44776">
<stop stop-color="#fff" offset="0"/>
<stop stop-color="#aaa" offset="1"/>
</linearGradient>
</defs>
<g transform="matrix(.996399 0 0 1 -4.883163 -247.93592)">
<g transform="matrix(1 0 0 .997925 -.07212 .477615)">
<circle stroke-linejoin="round" style="color:#000000" stroke-width=".9403349" stroke-opacity=".2651297" stroke-linecap="round" transform="matrix(1.00786,0,0,1.007983,-167.1731,96.0569)" stroke="#000" cy="159" cx="179" stroke-miterlimit="0" r="7" fill="none"/>
<rect style="color:#000000" height="16" width="16" y="248.029" x="5.0273" fill="none"/>
<path fill-rule="evenodd" d="m18.03125 259-2.03125 2.0312 3 3 2.03125-2.0312-3-3z"/>
<circle stroke-linejoin="round" style="color:#000000" stroke-width=".9931717" fill-rule="evenodd" stroke-linecap="round" transform="matrix(1.00786,0,0,1.007983,-167.8785,95.25998)" stroke="#000" cy="159" cx="179" stroke-miterlimit="0" r="7" fill="url(#a)"/>
</g>
<path style="color:#000000" d="m59.5 233.5312h6v8h-6v-8z" fill-rule="evenodd" transform="translate(-49.99998,18)" stroke="url(#b)" stroke-width="1.0018055" fill="url(#c)"/>
</g>
</svg>
